<svg id="cloud" xmlns="http://www.w3.org/2000/svg" width="96.1" height="41.39" viewBox="0 0 96.1 41.39">
  <title>cloud-vector-compound</title>
  <path d="M18.14,29.65c0-.95-1.33-0.61-2.1-0.61H2C1.5,29,1,29,1,28.28c0.09-3.14.38-6.39,2.87-8.53,3.81-3.27,8.48-4.33,13.46-4a28,28,0,0,0,3.82.15A1.26,1.26,0,0,0,22.53,15a16.17,16.17,0,0,1,2.35-3.89c3.53-5,8.46-7.44,14.5-6.9,4.35,0.39,8.54,1.73,11.8,5C51.64,9.71,52,10,52.61,9.33c3.54-4.4,8.5-5.25,13.72-5.43,3.16-.11,6.06,1,9,2a1.18,1.18,0,0,1,.22.13s0,0,0,0a2.11,2.11,0,0,0-.38-1.11,0.92,0.92,0,0,1-.66-0.17A15.1,15.1,0,0,0,67.12,3c-4.55,0-9,.47-12.82,3.38C53.49,7,53,8.19,52,8.35s-1.66-1.09-2.54-1.59a38.78,38.78,0,0,0-7.83-2.91c-5.69-1.79-10.57-.21-14.85,3.52a20.57,20.57,0,0,0-5,6.84,2.35,2.35,0,0,1-2.69.59c-0.82-.54-0.12-1.2.08-1.67a17.61,17.61,0,0,1,2.89-4.06c5-6.22,11.47-8.39,19.23-7.22,0.62,0.09,1.57.64,1.71-.32,0.09-.64-1-0.61-1.57-0.7C30.82-.82,22.5,3.92,17.64,14a0.88,0.88,0,0,1-1,.64c-3.25-.1-6.28.87-9.34,1.8C1.71,18.17-.56,24.73.13,28.76a1.43,1.43,0,0,0,1.4,1.46H16.18C16.91,30.15,18.16,30.56,18.14,29.65Zm63.14,5.57a6.88,6.88,0,0,1-5.87-.09c-0.35-.16-0.8-0.82-1.1-0.26s0.44,0.87.88,1.08a7.93,7.93,0,0,0,6.43.09c0.28-.1,5.12-1.71,5.12-5.88,0-1.6-6.29-6.64-12.62-1.88-1.25-.64-4.32-0.16-5.1.13-0.36.14-.83,0.32-0.63,0.82s0.64,0.23,1,.15a6.26,6.26,0,0,1,4.45.23,1,1,0,0,0,1.28-.3c1.29-.9,6-3.35,9.53.49C85.59,30.8,85.35,33.33,81.28,35.22Zm-9.64.11c0.29-.22.79-0.36,0.55-0.87a0.9,0.9,0,0,0-1-.34,1.78,1.78,0,0,0-.8.35c-2.37,1.67-5,1.39-7.46.61-1.76-.55-2.1-0.74-3.24,1.24a3.18,3.18,0,0,1-2.63,1.86,11.79,11.79,0,0,1-2.78-.06,1.42,1.42,0,0,0-1.53.45,5.14,5.14,0,0,1-5.35,1.5A12.67,12.67,0,0,1,43.23,38a2,2,0,0,0-2.21-.3c-4.59,1.76-8.9,1.78-12.42-2.33A0.47,0.47,0,0,0,28,35.1c-2.66,1.35-5.36.4-8,.09-0.86-.1-1.2-0.54-0.7-1.42,1.4-2.48,2.67-3.11,5.73-2.71a2,2,0,0,0,2.4-1.25,13.17,13.17,0,0,1,9-7.13,18.1,18.1,0,0,1,9.84.85c1.48,0.48,3,.94,4.43,1.45,0.69,0.24,1.09.07,1-.69a2.23,2.23,0,0,1,1.09-2,12.55,12.55,0,0,1,4.86-2.58C62,18.67,66,19,69.56,22a1.12,1.12,0,0,0,1.58,0l0.12-.14C72.95,20,75.64,19.33,78,19.33a18.51,18.51,0,0,1,5.07.64,19.8,19.8,0,0,1,4.56,2c0.61,0.35,1.2.71,1.78,1.09,1.09,0.69,2.15,1.4,3.19,2.14a5.51,5.51,0,0,0-1.07-2.39,38.85,38.85,0,0,0-6.42-3.24,15.83,15.83,0,0,0-7.21-1.45,15.12,15.12,0,0,0-3.91,1,8.65,8.65,0,0,0-1.58.6,5.25,5.25,0,0,0-1.29,1.21c-0.51.65-1,.14-1.38-0.15-5.06-3.57-10.26-3.23-15.54-.55a1.35,1.35,0,0,1-1.38.1c-2.41-1.42-5.14-1.92-7.76-2.69A15.59,15.59,0,0,0,33,18.83a2.77,2.77,0,0,1-1.94.26c-2.72-.45-5.32-0.28-7.27,2.06-0.24.29-.57,0.69-0.14,1s0.63-.15.83-0.4a4.28,4.28,0,0,1,3.18-1.67c1.51-.11,3.06.45,4.43,0.3s2.68-1.51,4.26-1.82c5.22-1,10.12.08,14.89,2.15,0.4,0.17,1.39.27,0.82,1s-0.69,1.8-1.89,1.48a17.48,17.48,0,0,1-2.38-.86,18.77,18.77,0,0,0-12.49-1.17,13.3,13.3,0,0,0-9,7.44A1.94,1.94,0,0,1,24,29.89c-3.3-.49-5.5,2.33-6.37,5-0.19.58,0.12,0.71,0.61,0.9a15.81,15.81,0,0,0,7.36.89,1.72,1.72,0,0,1,1.56.52,9.5,9.5,0,0,0,4.7,2.59c2.8,0.62,5.66,1,8.35-.22a2.82,2.82,0,0,1,2.93.17c3.26,1.85,6.61,2.48,10,.16a1.68,1.68,0,0,1,1.38-.22c3.06,0.58,5-.38,6.29-3.14,0.39-.87.8-0.44,1.26-0.26C65.38,37.53,68.64,37.59,71.64,35.33Zm7.36-23a2.2,2.2,0,0,0,0-.82H78.94c-4.52-2.87-11-6.31-17.35-4.33-3.16,1-5.51,3.13-8.12,4.92a1.66,1.66,0,0,1-2.16.18A32.89,32.89,0,0,0,38.64,7.67a6.39,6.39,0,0,0-2.17,0c-4.67,1-7.78,3.93-10.28,7.73-0.22.34-.76,0.79-0.28,1.12s0.89-.26,1.12-0.65a14.14,14.14,0,0,1,4.35-4.32c2.6-1.88,5.47-3,8.69-2.3,3.93,0.88,7.81,2,11.06,4.54a1.17,1.17,0,0,0,1.65.07l0.07-.07c1.35-1.4,3.15-2.17,4.64-3.36,5.15-4.1,15.47-1.5,20.39,1.71A1,1,0,0,0,79,12.33ZM13.52,20.64h1.76A0.69,0.69,0,0,0,16,20c0-.52-0.4-0.48-0.73-0.45a16.17,16.17,0,0,0-2.92.24c-3.3.83-5.19,3.15-6.53,6.06C5.35,26.77,6,26.68,6.6,26.6a44.5,44.5,0,0,1,6.6-.31h7.66c0.51,0,1.13-.06,1.14-0.66s-0.64-.43-1-0.44H14.67V25.08c-2.1.11-4.21,0.21-6.31,0.35-1,.07-1.12-0.38-0.63-1.11C9.09,22.23,10.85,20.71,13.52,20.64ZM50.25,35.89c-2.49,1.14-4.46-.1-6.36-1.43a1.56,1.56,0,0,0-2,.06,4.48,4.48,0,0,1-2.25,1,21,21,0,0,1-6.27-.28c-0.34-.09-0.84-0.3-1,0.19a0.68,0.68,0,0,0,.65.8c2.8,0.83,5.63,1.59,8.39,0a1.85,1.85,0,0,1,2.23.1,6.93,6.93,0,0,0,4.1,1.18,5.58,5.58,0,0,0,2.9-.57,0.72,0.72,0,0,0,.57-0.75,0.64,0.64,0,0,0-.83-0.37Zm4.88-11.07a7,7,0,0,0-2.84,3.84l0.56,0.43a3.54,3.54,0,0,1,.3-0.68c3.08-4.35,6.06-5.27,11-3.4a1,1,0,0,0,1.22-.07c0.28-.62-0.44-0.79-0.84-1A9.38,9.38,0,0,0,55.13,24.82ZM52.69,4.33c11.78-7,33.6-3.39,34,13.39,0,0.64,1.78,1.13,1.77.48C88,0.69,64.64-4.06,52.19,3.42A0.52,0.52,0,1,0,52.69,4.33ZM93.91,25.69c-0.57-.3-1.58.1-1,0.4,2.88,1.53,2.38,5.1.37,7.11a8.12,8.12,0,0,1-7.14,2.13,0.53,0.53,0,0,0-.61.44v0a8.38,8.38,0,0,1-3.32,1.92h0a13.86,13.86,0,0,1-7.8-.09,2.35,2.35,0,0,0-2.32.21c-2.21,1.94-4.58,2.49-7.3,1.22a0.66,0.66,0,0,0-.89.27v0c-0.27.56,0.27,0.61,0.58,0.78a6.84,6.84,0,0,0,5.82.4c1.78-.61,3.53-1.38,5.53-1a11.3,11.3,0,0,0,6.75-.64,1.21,1.21,0,0,1,.55-0.12,7,7,0,0,0,3-2.43,8.9,8.9,0,0,0,8.71-3.48C96.58,30.33,96.78,27.22,93.91,25.69Zm-25-12.61a9.87,9.87,0,0,0-6,.12c-0.6.22-.34,1.19,0.27,1,2.37-.88,7.49-0.68,9.15,1.68,0.37,0.52,1.23,0,.86-0.5C72.18,13.9,70.58,13.5,68.92,13.08Z" transform="translate(-0.01 0)" fill="#b19b61"/>
</svg>
